[gd_scene load_steps=6 format=3 uid="uid://dpj6df7sm2r6s"]

[ext_resource type="Script" path="res://entity.gd" id="1_amwo8"]
[ext_resource type="Texture2D" uid="uid://by6u671b53en0" path="res://assets/ship.png" id="1_g6lnm"]
[ext_resource type="ArrayMesh" uid="uid://bhwla6ihmssx8" path="res://assets/ship.obj" id="2_clswv"]

[sub_resource type="StandardMaterial3D" id="StandardMaterial3D_6f8bw"]
albedo_texture = ExtResource("1_g6lnm")

[sub_resource type="BoxShape3D" id="BoxShape3D_h14hl"]
size = Vector3(42.531, 11.095, 18.113)

[node name="ShipA" type="RigidBody3D"]
script = ExtResource("1_amwo8")

[node name="Ship" type="MeshInstance3D" parent="."]
material_override = SubResource("StandardMaterial3D_6f8bw")
mesh = ExtResource("2_clswv")

[node name="ShipHitBox" type="CollisionShape3D" parent="."]
transform = Transform3D(1, 0, 0, 0, 1, 0, 0, 0, 1, -1.384, 0, 0)
shape = SubResource("BoxShape3D_h14hl")
